{
  "assets": {
    "menu_background": {
      "type": "image",
      "source": "assets/images/menu.png"
    },
    "map_tiles": {
      "type": "image",
      "source": "assets/images/new_spritesheet.png"
    },
    "player_spritesheet": {
      "type": "spritesheet",
      "source": "assets/images/player_spritesheet.png",
      "frameWidth": 32,
      "frameHeight": 32
    },
    "bomb_spritesheet": {
      "type": "spritesheet",
      "source": "assets/images/bomb_spritesheet.png",
      "frameWidth": 16,
      "frameHeight": 16
    },
    "enemy_spritesheet": {
      "type": "spritesheet",
      "source": "assets/images/enemy_spritesheet.png",
      "frameWidth": 32,
      "frameHeight": 32
    },
    "croco_spritesheet": {
      "type": "spritesheet",
      "source": "assets/images/croco_spritesheet.png",
      "frameWidth": 32,
      "frameHeight": 32
    },
    "explosion_image": {
      "type": "image",
      "source": "assets/images/explosion.png"
    },
    "life_image": {
      "type": "image",
      "source": "assets/images/heart.png"
    },
    "level_tilemap": {
      "type": "tilemap",
      "source": "assets/maps/level2_map.json"
    },
    "portal_image": {
      "type": "image",
      "source": "assets/images/portal.png"
    },
    "life_item_image": {
      "type": "image",
      "source": "assets/images/life_item.png"
    },
    "bomb_item_image": {
      "type": "image",
      "source": "assets/images/bomb_item.png"
    },
    "explosion_sound": {
      "type": "sound",
      "source": "assets/sounds/bomb.wav"
    },
    "next_level": {
      "type": "sound",
      "source": "assets/sounds/level.wav"
    },
    "fail": {
      "type": "sound",
      "source": "assets/sounds/fail.wav"
    },
    "collect": {
      "type": "sound",
      "source": "assets/sounds/collect.wav"
    }
  },
  "groups": [
    "explosions",
    "bombs",
    "enemies",
    "players",
    "hud",
    "items",
    "portals"
  ],
  "map": {
    "key": "level_tilemap",
    "tilesets": [ "map_tiles" ],
    "next_level": "assets/levels/level3.json"

  }


}